{
  "msgType" : "carPositions",
  "data" : [ {
    "id" : {
      "name" : "Kinneri",
      "color" : "red"
    },
    "angle" : 0.0,
    "piecePosition" : {
      "pieceIndex" : 0,
      "inPieceDistance" : 0.0,
      "lane" : {
        "startLaneIndex" : 0,
        "endLaneIndex" : 0
      },
      "lap" : 0
    }
  } ],
  "gameId" : "3d19c21a-992c-4cad-b66b-181987e32b2d"
}