{
  "_counter_" : 89,
  "msgType" : "carPositions",
  "data" : [ {
    "id" : {
      "name" : "Kinneri",
      "color" : "red"
    },
    "angle" : 0.0,
    "piecePosition" : {
      "pieceIndex" : 1,
      "inPieceDistance" : 99.25333434787471,
      "lane" : {
        "startLaneIndex" : 0,
        "endLaneIndex" : 0
      },
      "lap" : 0
    }
  } ],
  "gameId" : "d53f80cf-db7f-44d4-8999-4bdfcf1b33d9",
  "gameTick" : 85
}