{
  "msgType" : "carPositions",
  "data" : [ {
    "id" : {
      "name" : "Kinneri",
      "color" : "red"
    },
    "angle" : -0.10103531247087466,
    "piecePosition" : {
      "pieceIndex" : 14,
      "inPieceDistance" : 12.162206133962865,
      "lane" : {
        "startLaneIndex" : 0,
        "endLaneIndex" : 0
      },
      "lap" : 1
    }
  } ],
  "gameId" : "3d19c21a-992c-4cad-b66b-181987e32b2d",
  "gameTick" : 781
}