{
  "_counter_" : 607,
  "msgType" : "turboAvailable",
  "data" : {
    "turboDurationMilliseconds" : 500.0,
    "turboDurationTicks" : 30,
    "turboFactor" : 3.0
  },
  "gameId" : "863ca730-44d6-4cfd-a848-bd730f70e1d5",
  "gameTick" : 601
}