{
  "msgType" : "carPositions",
  "data" : [ {
    "id" : {
      "name" : "Kinneri",
      "color" : "red"
    },
    "angle" : -43.475145467526,
    "piecePosition" : {
      "pieceIndex" : 17,
      "inPieceDistance" : 54.39998838403958,
      "lane" : {
        "startLaneIndex" : 0,
        "endLaneIndex" : 0
      },
      "lap" : 2
    }
  } ],
  "gameId" : "3d19c21a-992c-4cad-b66b-181987e32b2d",
  "gameTick" : 1356
}