{
  "msgType" : "lapFinished",
  "data" : {
    "car" : {
      "name" : "Kinneri",
      "color" : "red"
    },
    "lapTime" : {
      "lap" : 2,
      "ticks" : 535,
      "millis" : 8917
    },
    "raceTime" : {
      "laps" : 3,
      "ticks" : 1659,
      "millis" : 27650
    },
    "ranking" : {
      "overall" : 1,
      "fastestLap" : 1
    }
  },
  "gameId" : "3d19c21a-992c-4cad-b66b-181987e32b2d"
}